…
NBAFinal <- NBA_CompPts %>% mutate(cluster = as.factor(pam2$clustering))

NBACl <- NBAFinal %>% group_by(pts, tspercent, usgpercent, mp.x) %>% 
    count(cluster) %>% arrange(desc(n)) %>% pivot_wider(names_from = "cluster", 
    values_from = "n", values_fill = list(n = 0))

NBACl

## # A tibble: 540 x 7
## # Groups:   pts, tspercent, usgpercent, mp.x [540]
##      pts tspercent usgpercent  mp.x   `3`   `2`   `1`
##    <dbl> <chr>          <dbl> <dbl> <int> <int> <int>
##  1     0 0                7.6   3       1     0     0
##  2     0 0                8.7   2.5     1     0     0
##  3     0 0               14.5   3       1     0     0
##  4     0 0               16.6   4       1     0     0
##  5     0 0               16.9   2       1     0     0
##  6     0 0               19.1   3.5     1     0     0
##  7     0 0               43.7   2       1     0     0
##  8     0 0               43.9   1       1     0     0
##  9     0 NA               0     1       1     0     0
## 10     0 NA               0     2       1     0     0
## # … with 530 more rows
…
